DMBT1 Mice Microbiome Study – Stable Taxa Identification
…
stab_thre = 0.85
prev_thre = 0.3
icc_df = icc_df %>% 
  mutate(Stable = as.factor(case_when(ICC >= stab_thre ~ 1,
                                      TRUE ~ 0)),
         Prevalent = as.factor(case_when(Prevalence >= prev_thre ~ 1,
                                         TRUE ~ 0)),
         StabPrev = as.factor(case_when(Stable == "1" & Prevalent == "1" ~ 1,
                                        Stable == "1" & Prevalent == "0" ~ 2,
                                        Stable == "0" & Prevalent == "1" ~ 3,
                                        Stable == "0" & Prevalent == "0" ~ 4)))
icc_df

## # A tibble: 109 × 13
##    ASV    Kingdom Phylum Class Order Family Genus Prevalence    ICC REVar Stable
##    <chr>  <chr>   <chr>  <chr> <chr> <chr>  <chr>      <dbl>  <dbl> <dbl> <fct> 
##  1 Otu00… d__Bac… p__Pr… c__G… o__P… f__Pa… <NA>       0.966 0.442  2.61  0     
##  2 Otu00… d__Bac… p__Pr… c__G… o__P… f__Pa… <NA>       1     0      0     0     
##  3 Otu00… d__Bac… p__Ac… c__A… o__A… f__Co… g__C…      0.966 0      0     0     
##  4 Otu00… d__Bac… p__Fi… c__B… o__L… f__St… g__S…      0.993 0      0     0     
##  5 Otu00… d__Bac… p__Fi… c__B… o__L… f__La… g__L…      0.959 0.0877 0.316 0     
##  6 Otu00… d__Bac… p__Fi… c__B… o__L… f__St… g__S…      0.959 0      0     0     
##  7 Otu00… d__Bac… p__Pr… c__B… o__B… f__Bu… g__C…      1     0      0     0     
##  8 Otu00… d__Bac… p__Pr… c__B… o__N… f__Ne… g__N…      0.310 0.451  2.70  0     
##  9 Otu00… d__Bac… p__Fi… c__B… o__B… f__St… g__S…      0.578 0.163  0.639 0     
## 10 Otu00… d__Bac… p__Fu… c__F… o__F… f__Le… <NA>       0.160 0.401  2.20  0     
## # ℹ 99 more rows
## # ℹ 2 more variables: Prevalent <fct>, StabPrev <fct>
…
